








whizy
whizy v2
whizy


violent
infection










































































phatshock
phat shoch

phat shock


























































xiben
ll
king matt














