[Henning b, May 12, 2015 12:52:59 PM]:  recieved item Bones(526) x 1, from Rock_Crab
[Henning b, May 12, 2015 12:53:13 PM]:  recieved item Bones(526) x 1, from Rock_Crab
[Henning b2, May 12, 2015 12:56:09 PM]:  recieved item Bones(526) x 1, from Rock_Crab
